EESchema Schematic File Version 4
EELAYER 30 0
EELAYER END
$Descr A3 11693 16535 portrait
encoding utf-8
Sheet 1 1
Title ""
Date ""
Rev ""
Comp ""
Comment1 ""
Comment2 ""
Comment3 ""
Comment4 ""
$EndDescr
$Comp
L ramboard-rescue:UPD446-ram U1
U 1 1 62BBFD27
P 7650 2500
F 0 "U1" H 7900 2400 50  0000 C CNN
F 1 "UPD446" H 7800 1300 50  0000 C CNN
F 2 "" H 7650 2500 50  0001 C CNN
F 3 "" H 7650 2500 50  0001 C CNN
	1    7650 2500
	1    0    0    -1  
$EndComp
$Comp
L ramboard-rescue:UPD446-ram U3
U 1 1 62BC4318
P 7650 6000
F 0 "U3" H 7900 5900 50  0000 C CNN
F 1 "UPD446" H 7800 4800 50  0000 C CNN
F 2 "" H 7650 6000 50  0001 C CNN
F 3 "" H 7650 6000 50  0001 C CNN
	1    7650 6000
	1    0    0    -1  
$EndComp
$Comp
L ramboard-rescue:UPD446-ram U4
U 1 1 62BC50FD
P 7650 7750
F 0 "U4" H 7900 7650 50  0000 C CNN
F 1 "UPD446" H 7800 6550 50  0000 C CNN
F 2 "" H 7650 7750 50  0001 C CNN
F 3 "" H 7650 7750 50  0001 C CNN
	1    7650 7750
	1    0    0    -1  
$EndComp
$Comp
L ramboard-rescue:UPD446-ram U5
U 1 1 62BC69C0
P 7650 9500
F 0 "U5" H 7900 9400 50  0000 C CNN
F 1 "UPD446" H 7800 8300 50  0000 C CNN
F 2 "" H 7650 9500 50  0001 C CNN
F 3 "" H 7650 9500 50  0001 C CNN
	1    7650 9500
	1    0    0    -1  
$EndComp
Wire Wire Line
	7300 2750 7000 2750
Wire Wire Line
	7300 2850 7000 2850
Wire Wire Line
	7300 2950 7000 2950
Wire Wire Line
	7300 3050 7000 3050
Wire Wire Line
	7300 3150 7000 3150
Wire Wire Line
	7300 3250 7000 3250
Wire Wire Line
	7300 3350 7000 3350
Wire Wire Line
	7300 3450 7000 3450
Wire Wire Line
	7300 3550 7000 3550
Wire Wire Line
	7300 3650 7000 3650
Wire Wire Line
	7300 3750 7000 3750
Entry Wire Line
	7000 2750 6900 2850
Entry Wire Line
	7000 2850 6900 2950
Entry Wire Line
	7000 2950 6900 3050
Entry Wire Line
	7000 3050 6900 3150
Entry Wire Line
	7000 3150 6900 3250
Entry Wire Line
	7000 3250 6900 3350
Entry Wire Line
	7000 3350 6900 3450
Entry Wire Line
	7000 3450 6900 3550
Entry Wire Line
	7000 3550 6900 3650
Entry Wire Line
	7000 3650 6900 3750
Entry Wire Line
	7000 3750 6900 3850
Text Label 7100 2750 0    50   ~ 0
A0
Text Label 7100 2850 0    50   ~ 0
A1
Text Label 7100 2950 0    50   ~ 0
A2
Text Label 7100 3050 0    50   ~ 0
A3
Text Label 7100 3150 0    50   ~ 0
A4
Text Label 7100 3250 0    50   ~ 0
A5
Text Label 7100 3350 0    50   ~ 0
A6
Text Label 7100 3450 0    50   ~ 0
A7
Text Label 7100 3550 0    50   ~ 0
A8
Text Label 7100 3650 0    50   ~ 0
A9
Text Label 7100 3750 0    50   ~ 0
A10
Wire Bus Line
	6900 2600 6550 2600
Text Label 6600 2600 0    50   ~ 0
A[0..10]
Wire Wire Line
	7300 4500 7000 4500
Wire Wire Line
	7300 4600 7000 4600
Wire Wire Line
	7300 4700 7000 4700
Wire Wire Line
	7300 4800 7000 4800
Wire Wire Line
	7300 4900 7000 4900
Wire Wire Line
	7300 5000 7000 5000
Wire Wire Line
	7300 5100 7000 5100
Wire Wire Line
	7300 5200 7000 5200
Wire Wire Line
	7300 5300 7000 5300
Wire Wire Line
	7300 5400 7000 5400
Wire Wire Line
	7300 5500 7000 5500
Entry Wire Line
	7000 4500 6900 4600
Entry Wire Line
	7000 4600 6900 4700
Entry Wire Line
	7000 4700 6900 4800
Entry Wire Line
	7000 4800 6900 4900
Entry Wire Line
	7000 4900 6900 5000
Entry Wire Line
	7000 5000 6900 5100
Entry Wire Line
	7000 5100 6900 5200
Entry Wire Line
	7000 5200 6900 5300
Entry Wire Line
	7000 5300 6900 5400
Entry Wire Line
	7000 5400 6900 5500
Entry Wire Line
	7000 5500 6900 5600
Text Label 7100 4500 0    50   ~ 0
A0
Text Label 7100 4600 0    50   ~ 0
A1
Text Label 7100 4700 0    50   ~ 0
A2
Text Label 7100 4800 0    50   ~ 0
A3
Text Label 7100 4900 0    50   ~ 0
A4
Text Label 7100 5000 0    50   ~ 0
A5
Text Label 7100 5100 0    50   ~ 0
A6
Text Label 7100 5200 0    50   ~ 0
A7
Text Label 7100 5300 0    50   ~ 0
A8
Text Label 7100 5400 0    50   ~ 0
A9
Text Label 7100 5500 0    50   ~ 0
A10
Wire Wire Line
	7300 6250 7000 6250
Wire Wire Line
	7300 6350 7000 6350
Wire Wire Line
	7300 6450 7000 6450
Wire Wire Line
	7300 6550 7000 6550
Wire Wire Line
	7300 6650 7000 6650
Wire Wire Line
	7300 6750 7000 6750
Wire Wire Line
	7300 6850 7000 6850
Wire Wire Line
	7300 6950 7000 6950
Wire Wire Line
	7300 7050 7000 7050
Wire Wire Line
	7300 7150 7000 7150
Wire Wire Line
	7300 7250 7000 7250
Entry Wire Line
	7000 6250 6900 6350
Entry Wire Line
	7000 6350 6900 6450
Entry Wire Line
	7000 6450 6900 6550
Entry Wire Line
	7000 6550 6900 6650
Entry Wire Line
	7000 6650 6900 6750
Entry Wire Line
	7000 6750 6900 6850
Entry Wire Line
	7000 6850 6900 6950
Entry Wire Line
	7000 6950 6900 7050
Entry Wire Line
	7000 7050 6900 7150
Entry Wire Line
	7000 7150 6900 7250
Entry Wire Line
	7000 7250 6900 7350
Text Label 7100 6250 0    50   ~ 0
A0
Text Label 7100 6350 0    50   ~ 0
A1
Text Label 7100 6450 0    50   ~ 0
A2
Text Label 7100 6550 0    50   ~ 0
A3
Text Label 7100 6650 0    50   ~ 0
A4
Text Label 7100 6750 0    50   ~ 0
A5
Text Label 7100 6850 0    50   ~ 0
A6
Text Label 7100 6950 0    50   ~ 0
A7
Text Label 7100 7050 0    50   ~ 0
A8
Text Label 7100 7150 0    50   ~ 0
A9
Text Label 7100 7250 0    50   ~ 0
A10
Wire Wire Line
	7300 8000 7000 8000
Wire Wire Line
	7300 8100 7000 8100
Wire Wire Line
	7300 8200 7000 8200
Wire Wire Line
	7300 8300 7000 8300
Wire Wire Line
	7300 8400 7000 8400
Wire Wire Line
	7300 8500 7000 8500
Wire Wire Line
	7300 8600 7000 8600
Wire Wire Line
	7300 8700 7000 8700
Wire Wire Line
	7300 8800 7000 8800
Wire Wire Line
	7300 8900 7000 8900
Wire Wire Line
	7300 9000 7000 9000
Entry Wire Line
	7000 8000 6900 8100
Entry Wire Line
	7000 8100 6900 8200
Entry Wire Line
	7000 8200 6900 8300
Entry Wire Line
	7000 8300 6900 8400
Entry Wire Line
	7000 8400 6900 8500
Entry Wire Line
	7000 8500 6900 8600
Entry Wire Line
	7000 8600 6900 8700
Entry Wire Line
	7000 8700 6900 8800
Entry Wire Line
	7000 8800 6900 8900
Entry Wire Line
	7000 8900 6900 9000
Entry Wire Line
	7000 9000 6900 9100
Text Label 7100 8000 0    50   ~ 0
A0
Text Label 7100 8100 0    50   ~ 0
A1
Text Label 7100 8200 0    50   ~ 0
A2
Text Label 7100 8300 0    50   ~ 0
A3
Text Label 7100 8400 0    50   ~ 0
A4
Text Label 7100 8500 0    50   ~ 0
A5
Text Label 7100 8600 0    50   ~ 0
A6
Text Label 7100 8700 0    50   ~ 0
A7
Text Label 7100 8800 0    50   ~ 0
A8
Text Label 7100 8900 0    50   ~ 0
A9
Text Label 7100 9000 0    50   ~ 0
A10
Wire Wire Line
	7300 9750 7000 9750
Wire Wire Line
	7300 9850 7000 9850
Wire Wire Line
	7300 9950 7000 9950
Wire Wire Line
	7300 10050 7000 10050
Wire Wire Line
	7300 10150 7000 10150
Wire Wire Line
	7300 10250 7000 10250
Wire Wire Line
	7300 10350 7000 10350
Wire Wire Line
	7300 10450 7000 10450
Wire Wire Line
	7300 10550 7000 10550
Wire Wire Line
	7300 10650 7000 10650
Wire Wire Line
	7300 10750 7000 10750
Entry Wire Line
	7000 9750 6900 9850
Entry Wire Line
	7000 9850 6900 9950
Entry Wire Line
	7000 9950 6900 10050
Entry Wire Line
	7000 10050 6900 10150
Entry Wire Line
	7000 10150 6900 10250
Entry Wire Line
	7000 10250 6900 10350
Entry Wire Line
	7000 10350 6900 10450
Entry Wire Line
	7000 10450 6900 10550
Entry Wire Line
	7000 10550 6900 10650
Entry Wire Line
	7000 10650 6900 10750
Entry Wire Line
	7000 10750 6900 10850
Text Label 7100 9750 0    50   ~ 0
A0
Text Label 7100 9850 0    50   ~ 0
A1
Text Label 7100 9950 0    50   ~ 0
A2
Text Label 7100 10050 0    50   ~ 0
A3
Text Label 7100 10150 0    50   ~ 0
A4
Text Label 7100 10250 0    50   ~ 0
A5
Text Label 7100 10350 0    50   ~ 0
A6
Text Label 7100 10450 0    50   ~ 0
A7
Text Label 7100 10550 0    50   ~ 0
A8
Text Label 7100 10650 0    50   ~ 0
A9
Text Label 7100 10750 0    50   ~ 0
A10
Wire Wire Line
	8050 2850 8450 2850
Wire Wire Line
	8050 2950 8450 2950
Wire Wire Line
	8050 3050 8450 3050
Wire Wire Line
	8050 3150 8450 3150
Wire Wire Line
	8050 3250 8450 3250
Wire Wire Line
	8050 3350 8450 3350
Wire Wire Line
	8050 3450 8450 3450
Wire Wire Line
	8050 3550 8450 3550
Text Label 8200 2850 0    50   ~ 0
IO_1
Text Label 8200 2950 0    50   ~ 0
IO_2
Text Label 8200 3050 0    50   ~ 0
IO_3
Text Label 8200 3150 0    50   ~ 0
IO_4
Text Label 8200 3250 0    50   ~ 0
IO_5
Text Label 8200 3350 0    50   ~ 0
IO_6
Text Label 8200 3450 0    50   ~ 0
IO_7
Text Label 8200 3550 0    50   ~ 0
IO_8
Entry Wire Line
	8450 2850 8550 2950
Entry Wire Line
	8450 2950 8550 3050
Entry Wire Line
	8450 3050 8550 3150
Entry Wire Line
	8450 3150 8550 3250
Entry Wire Line
	8450 3250 8550 3350
Entry Wire Line
	8450 3350 8550 3450
Entry Wire Line
	8450 3450 8550 3550
Entry Wire Line
	8450 3550 8550 3650
Wire Wire Line
	8050 4600 8450 4600
Wire Wire Line
	8050 4700 8450 4700
Wire Wire Line
	8050 4800 8450 4800
Wire Wire Line
	8050 4900 8450 4900
Wire Wire Line
	8050 5000 8450 5000
Wire Wire Line
	8050 5100 8450 5100
Wire Wire Line
	8050 5200 8450 5200
Wire Wire Line
	8050 5300 8450 5300
Text Label 8200 4600 0    50   ~ 0
IO_1
Text Label 8200 4700 0    50   ~ 0
IO_2
Text Label 8200 4800 0    50   ~ 0
IO_3
Text Label 8200 4900 0    50   ~ 0
IO_4
Text Label 8200 5000 0    50   ~ 0
IO_5
Text Label 8200 5100 0    50   ~ 0
IO_6
Text Label 8200 5200 0    50   ~ 0
IO_7
Text Label 8200 5300 0    50   ~ 0
IO_8
Entry Wire Line
	8450 4600 8550 4700
Entry Wire Line
	8450 4700 8550 4800
Entry Wire Line
	8450 4800 8550 4900
Entry Wire Line
	8450 4900 8550 5000
Entry Wire Line
	8450 5000 8550 5100
Entry Wire Line
	8450 5100 8550 5200
Entry Wire Line
	8450 5200 8550 5300
Entry Wire Line
	8450 5300 8550 5400
Wire Wire Line
	8050 6350 8450 6350
Wire Wire Line
	8050 6450 8450 6450
Wire Wire Line
	8050 6550 8450 6550
Wire Wire Line
	8050 6650 8450 6650
Wire Wire Line
	8050 6750 8450 6750
Wire Wire Line
	8050 6850 8450 6850
Wire Wire Line
	8050 6950 8450 6950
Wire Wire Line
	8050 7050 8450 7050
Text Label 8200 6350 0    50   ~ 0
IO_1
Text Label 8200 6450 0    50   ~ 0
IO_2
Text Label 8200 6550 0    50   ~ 0
IO_3
Text Label 8200 6650 0    50   ~ 0
IO_4
Text Label 8200 6750 0    50   ~ 0
IO_5
Text Label 8200 6850 0    50   ~ 0
IO_6
Text Label 8200 6950 0    50   ~ 0
IO_7
Text Label 8200 7050 0    50   ~ 0
IO_8
Entry Wire Line
	8450 6350 8550 6450
Entry Wire Line
	8450 6450 8550 6550
Entry Wire Line
	8450 6550 8550 6650
Entry Wire Line
	8450 6650 8550 6750
Entry Wire Line
	8450 6750 8550 6850
Entry Wire Line
	8450 6850 8550 6950
Entry Wire Line
	8450 6950 8550 7050
Entry Wire Line
	8450 7050 8550 7150
Wire Wire Line
	8050 8100 8450 8100
Wire Wire Line
	8050 8200 8450 8200
Wire Wire Line
	8050 8300 8450 8300
Wire Wire Line
	8050 8400 8450 8400
Wire Wire Line
	8050 8500 8450 8500
Wire Wire Line
	8050 8600 8450 8600
Wire Wire Line
	8050 8700 8450 8700
Wire Wire Line
	8050 8800 8450 8800
Text Label 8200 8100 0    50   ~ 0
IO_1
Text Label 8200 8200 0    50   ~ 0
IO_2
Text Label 8200 8300 0    50   ~ 0
IO_3
Text Label 8200 8400 0    50   ~ 0
IO_4
Text Label 8200 8500 0    50   ~ 0
IO_5
Text Label 8200 8600 0    50   ~ 0
IO_6
Text Label 8200 8700 0    50   ~ 0
IO_7
Text Label 8200 8800 0    50   ~ 0
IO_8
Entry Wire Line
	8450 8100 8550 8200
Entry Wire Line
	8450 8200 8550 8300
Entry Wire Line
	8450 8300 8550 8400
Entry Wire Line
	8450 8400 8550 8500
Entry Wire Line
	8450 8500 8550 8600
Entry Wire Line
	8450 8600 8550 8700
Entry Wire Line
	8450 8700 8550 8800
Entry Wire Line
	8450 8800 8550 8900
Wire Wire Line
	8050 9850 8450 9850
Wire Wire Line
	8050 9950 8450 9950
Wire Wire Line
	8050 10050 8450 10050
Wire Wire Line
	8050 10150 8450 10150
Wire Wire Line
	8050 10250 8450 10250
Wire Wire Line
	8050 10350 8450 10350
Wire Wire Line
	8050 10450 8450 10450
Wire Wire Line
	8050 10550 8450 10550
Text Label 8200 9850 0    50   ~ 0
IO_1
Text Label 8200 9950 0    50   ~ 0
IO_2
Text Label 8200 10050 0    50   ~ 0
IO_3
Text Label 8200 10150 0    50   ~ 0
IO_4
Text Label 8200 10250 0    50   ~ 0
IO_5
Text Label 8200 10350 0    50   ~ 0
IO_6
Text Label 8200 10450 0    50   ~ 0
IO_7
Text Label 8200 10550 0    50   ~ 0
IO_8
Entry Wire Line
	8450 9850 8550 9950
Entry Wire Line
	8450 9950 8550 10050
Entry Wire Line
	8450 10050 8550 10150
Entry Wire Line
	8450 10150 8550 10250
Entry Wire Line
	8450 10250 8550 10350
Entry Wire Line
	8450 10350 8550 10450
Entry Wire Line
	8450 10450 8550 10550
Entry Wire Line
	8450 10550 8550 10650
Wire Bus Line
	8550 2600 9050 2600
Text Label 8700 2600 0    50   ~ 0
IO[1..8]
$Comp
L power:+5V #PWR06
U 1 1 62C55935
P 7650 2550
F 0 "#PWR06" H 7650 2400 50  0001 C CNN
F 1 "+5V" H 7665 2723 50  0000 C CNN
F 2 "" H 7650 2550 50  0001 C CNN
F 3 "" H 7650 2550 50  0001 C CNN
	1    7650 2550
	1    0    0    -1  
$EndComp
$Comp
L ramboard-rescue:UPD446-ram U2
U 1 1 62BC2315
P 7650 4250
F 0 "U2" H 7900 4150 50  0000 C CNN
F 1 "UPD446" H 7800 3050 50  0000 C CNN
F 2 "" H 7650 4250 50  0001 C CNN
F 3 "" H 7650 4250 50  0001 C CNN
	1    7650 4250
	1    0    0    -1  
$EndComp
$Comp
L power:+5V #PWR07
U 1 1 62C5A363
P 7650 4300
F 0 "#PWR07" H 7650 4150 50  0001 C CNN
F 1 "+5V" V 7600 4400 50  0000 L CNN
F 2 "" H 7650 4300 50  0001 C CNN
F 3 "" H 7650 4300 50  0001 C CNN
	1    7650 4300
	0    1    1    0   
$EndComp
$Comp
L power:+5V #PWR09
U 1 1 62C5ECD4
P 7650 6050
F 0 "#PWR09" H 7650 5900 50  0001 C CNN
F 1 "+5V" V 7600 6150 50  0000 L CNN
F 2 "" H 7650 6050 50  0001 C CNN
F 3 "" H 7650 6050 50  0001 C CNN
	1    7650 6050
	0    1    1    0   
$EndComp
$Comp
L power:+5V #PWR011
U 1 1 62C5FED9
P 7650 7800
F 0 "#PWR011" H 7650 7650 50  0001 C CNN
F 1 "+5V" V 7600 7900 50  0000 L CNN
F 2 "" H 7650 7800 50  0001 C CNN
F 3 "" H 7650 7800 50  0001 C CNN
	1    7650 7800
	0    1    1    0   
$EndComp
$Comp
L power:+5V #PWR013
U 1 1 62C6067B
P 7650 9550
F 0 "#PWR013" H 7650 9400 50  0001 C CNN
F 1 "+5V" V 7600 9650 50  0000 L CNN
F 2 "" H 7650 9550 50  0001 C CNN
F 3 "" H 7650 9550 50  0001 C CNN
	1    7650 9550
	0    1    1    0   
$EndComp
$Comp
L power:GNDREF #PWR014
U 1 1 62C61888
P 7650 11200
F 0 "#PWR014" H 7650 10950 50  0001 C CNN
F 1 "GNDREF" V 7655 11072 50  0000 R CNN
F 2 "" H 7650 11200 50  0001 C CNN
F 3 "" H 7650 11200 50  0001 C CNN
	1    7650 11200
	0    1    1    0   
$EndComp
$Comp
L power:GNDREF #PWR012
U 1 1 62C6203A
P 7650 9450
F 0 "#PWR012" H 7650 9200 50  0001 C CNN
F 1 "GNDREF" V 7655 9322 50  0000 R CNN
F 2 "" H 7650 9450 50  0001 C CNN
F 3 "" H 7650 9450 50  0001 C CNN
	1    7650 9450
	0    1    1    0   
$EndComp
$Comp
L power:GNDREF #PWR010
U 1 1 62C63178
P 7650 7700
F 0 "#PWR010" H 7650 7450 50  0001 C CNN
F 1 "GNDREF" V 7655 7572 50  0000 R CNN
F 2 "" H 7650 7700 50  0001 C CNN
F 3 "" H 7650 7700 50  0001 C CNN
	1    7650 7700
	0    1    1    0   
$EndComp
$Comp
L power:GNDREF #PWR08
U 1 1 62C635A1
P 7650 5950
F 0 "#PWR08" H 7650 5700 50  0001 C CNN
F 1 "GNDREF" V 7655 5822 50  0000 R CNN
F 2 "" H 7650 5950 50  0001 C CNN
F 3 "" H 7650 5950 50  0001 C CNN
	1    7650 5950
	0    1    1    0   
$EndComp
Wire Wire Line
	8050 4050 8450 4050
Text Label 8150 4050 0    50   ~ 0
~WE
Wire Wire Line
	8050 5800 8450 5800
Text Label 8150 5800 0    50   ~ 0
~WE
Wire Wire Line
	8050 7550 8450 7550
Text Label 8150 7550 0    50   ~ 0
~WE
Wire Wire Line
	8050 9300 8450 9300
Text Label 8150 9300 0    50   ~ 0
~WE
Wire Wire Line
	8050 11050 8450 11050
Text Label 8150 11050 0    50   ~ 0
~WE
$Comp
L Connector_Generic_MountingPin:Conn_01x06_MountingPin J1
U 1 1 62C9217F
P 750 6150
F 0 "J1" H 600 5550 50  0000 L CNN
F 1 "Conn_01x06_MountingPin" V 750 6500 50  0000 L CNN
F 2 "" H 750 6150 50  0001 C CNN
F 3 "~" H 750 6150 50  0001 C CNN
	1    750  6150
	-1   0    0    1   
$EndComp
Text Notes 600  6650 1    50   ~ 0
To 4-bit 10-position encoder
Wire Wire Line
	1100 11000 1800 11000
$Comp
L Device:R_US R1
U 1 1 62CA60E3
P 1800 11600
F 0 "R1" H 1868 11646 50  0000 L CNN
F 1 "100k" H 1868 11555 50  0000 L CNN
F 2 "" V 1840 11590 50  0001 C CNN
F 3 "~" H 1800 11600 50  0001 C CNN
	1    1800 11600
	1    0    0    -1  
$EndComp
$Comp
L power:GNDREF #PWR02
U 1 1 62CA60E9
P 1800 11750
F 0 "#PWR02" H 1800 11500 50  0001 C CNN
F 1 "GNDREF" H 1700 11600 50  0000 C CNN
F 2 "" H 1800 11750 50  0001 C CNN
F 3 "" H 1800 11750 50  0001 C CNN
	1    1800 11750
	1    0    0    -1  
$EndComp
$Comp
L Device:R_US R2
U 1 1 62CAAB73
P 2100 11600
F 0 "R2" H 2168 11646 50  0000 L CNN
F 1 "100k" H 2168 11555 50  0000 L CNN
F 2 "" V 2140 11590 50  0001 C CNN
F 3 "~" H 2100 11600 50  0001 C CNN
	1    2100 11600
	1    0    0    -1  
$EndComp
$Comp
L power:GNDREF #PWR03
U 1 1 62CAAB79
P 2100 11750
F 0 "#PWR03" H 2100 11500 50  0001 C CNN
F 1 "GNDREF" H 2050 11600 50  0000 C CNN
F 2 "" H 2100 11750 50  0001 C CNN
F 3 "" H 2100 11750 50  0001 C CNN
	1    2100 11750
	1    0    0    -1  
$EndComp
$Comp
L Device:R_US R3
U 1 1 62CAF2AB
P 2400 11600
F 0 "R3" H 2468 11646 50  0000 L CNN
F 1 "100k" H 2468 11555 50  0000 L CNN
F 2 "" V 2440 11590 50  0001 C CNN
F 3 "~" H 2400 11600 50  0001 C CNN
	1    2400 11600
	1    0    0    -1  
$EndComp
$Comp
L power:GNDREF #PWR04
U 1 1 62CAF2B1
P 2400 11750
F 0 "#PWR04" H 2400 11500 50  0001 C CNN
F 1 "GNDREF" H 2400 11600 50  0000 C CNN
F 2 "" H 2400 11750 50  0001 C CNN
F 3 "" H 2400 11750 50  0001 C CNN
	1    2400 11750
	1    0    0    -1  
$EndComp
$Comp
L Device:R_US R4
U 1 1 62CB3B95
P 2700 11600
F 0 "R4" H 2768 11646 50  0000 L CNN
F 1 "100k" H 2768 11555 50  0000 L CNN
F 2 "" V 2740 11590 50  0001 C CNN
F 3 "~" H 2700 11600 50  0001 C CNN
	1    2700 11600
	1    0    0    -1  
$EndComp
$Comp
L power:GNDREF #PWR05
U 1 1 62CB3B9B
P 2700 11750
F 0 "#PWR05" H 2700 11500 50  0001 C CNN
F 1 "GNDREF" H 2750 11600 50  0000 C CNN
F 2 "" H 2700 11750 50  0001 C CNN
F 3 "" H 2700 11750 50  0001 C CNN
	1    2700 11750
	1    0    0    -1  
$EndComp
Wire Wire Line
	2100 10900 2100 11450
Wire Wire Line
	1100 10900 2100 10900
Wire Wire Line
	1100 10800 2400 10800
Wire Wire Line
	2400 10800 2400 11450
Wire Wire Line
	2700 11450 2700 10700
Wire Wire Line
	2700 10700 1100 10700
Text Label 1300 11000 0    50   ~ 0
EnB_0
Text Label 1300 10900 0    50   ~ 0
EnB_1
Text Label 1300 10800 0    50   ~ 0
EnB_2
Text Label 1300 10700 0    50   ~ 0
EnB_3
Entry Wire Line
	6800 8950 6900 9050
Text Label 6350 8950 0    50   ~ 0
A10
Wire Wire Line
	7300 4050 7050 4050
Text Label 7100 4050 0    50   ~ 0
~CS1
Wire Wire Line
	7300 5800 7050 5800
Text Label 7100 5800 0    50   ~ 0
~CS2
Wire Wire Line
	7300 7550 7050 7550
Text Label 7100 7550 0    50   ~ 0
~CS3
Wire Wire Line
	7300 9300 7050 9300
Text Label 7100 9300 0    50   ~ 0
~CS4
Wire Wire Line
	7300 11050 7050 11050
Text Label 7100 11050 0    50   ~ 0
~CS5
Text Label 4750 6000 0    50   ~ 0
~CS1
Text Label 4750 6550 0    50   ~ 0
~CS2
Text Label 4750 7100 0    50   ~ 0
~CS3
Text Label 4750 7650 0    50   ~ 0
~CS4
Text Label 4750 8250 0    50   ~ 0
~CS5
Text Notes 3850 2550 1    50   ~ 0
Socket only.\nWires to OEM chip
Wire Wire Line
	4150 2450 4550 2450
Text Label 4300 2450 0    50   ~ 0
~WE
Wire Wire Line
	4150 1500 4800 1500
Wire Wire Line
	4150 1600 4800 1600
Wire Wire Line
	4150 1700 4800 1700
Wire Wire Line
	4150 1800 4800 1800
Text Label 4300 1500 0    50   ~ 0
IO_1
Text Label 4300 1600 0    50   ~ 0
IO_2
Text Label 4300 1700 0    50   ~ 0
IO_3
Text Label 4300 1800 0    50   ~ 0
IO_4
$Comp
L power:GNDREF #PWR0101
U 1 1 62F59441
P 4800 3250
F 0 "#PWR0101" H 4800 3000 50  0001 C CNN
F 1 "GNDREF" V 4805 3122 50  0000 R CNN
F 2 "" H 4800 3250 50  0001 C CNN
F 3 "" H 4800 3250 50  0001 C CNN
	1    4800 3250
	0    1    -1   0   
$EndComp
$Comp
L power:GNDREF #PWR0102
U 1 1 62F5907A
P 4800 3150
F 0 "#PWR0102" H 4800 2900 50  0001 C CNN
F 1 "GNDREF" V 4805 3022 50  0000 R CNN
F 2 "" H 4800 3150 50  0001 C CNN
F 3 "" H 4800 3150 50  0001 C CNN
	1    4800 3150
	0    1    -1   0   
$EndComp
$Comp
L power:GNDREF #PWR0103
U 1 1 62F58C81
P 4800 3050
F 0 "#PWR0103" H 4800 2800 50  0001 C CNN
F 1 "GNDREF" V 4805 2922 50  0000 R CNN
F 2 "" H 4800 3050 50  0001 C CNN
F 3 "" H 4800 3050 50  0001 C CNN
	1    4800 3050
	0    1    -1   0   
$EndComp
$Comp
L power:GNDREF #PWR0104
U 1 1 62F585C4
P 4800 2950
F 0 "#PWR0104" H 4800 2700 50  0001 C CNN
F 1 "GNDREF" V 4805 2822 50  0000 R CNN
F 2 "" H 4800 2950 50  0001 C CNN
F 3 "" H 4800 2950 50  0001 C CNN
	1    4800 2950
	0    1    -1   0   
$EndComp
$Comp
L Device:R_US R8
U 1 1 62F576EA
P 4950 3250
F 0 "R8" V 4900 3400 50  0000 C CNN
F 1 "50k" V 4900 3100 50  0000 C CNN
F 2 "" V 4990 3240 50  0001 C CNN
F 3 "~" H 4950 3250 50  0001 C CNN
	1    4950 3250
	0    -1   1    0   
$EndComp
$Comp
L Device:R_US R7
U 1 1 62F571EB
P 4950 3150
F 0 "R7" V 4900 3300 50  0000 C CNN
F 1 "50k" V 4900 3000 50  0000 C CNN
F 2 "" V 4990 3140 50  0001 C CNN
F 3 "~" H 4950 3150 50  0001 C CNN
	1    4950 3150
	0    -1   1    0   
$EndComp
$Comp
L Device:R_US R6
U 1 1 62F56FE1
P 4950 3050
F 0 "R6" V 4900 3200 50  0000 C CNN
F 1 "50k" V 4900 2900 50  0000 C CNN
F 2 "" V 4990 3040 50  0001 C CNN
F 3 "~" H 4950 3050 50  0001 C CNN
	1    4950 3050
	0    -1   1    0   
$EndComp
$Comp
L Device:R_US R5
U 1 1 62F56C4B
P 4950 2950
F 0 "R5" V 4900 3100 50  0000 C CNN
F 1 "50k" V 4900 2800 50  0000 C CNN
F 2 "" V 4990 2940 50  0001 C CNN
F 3 "~" H 4950 2950 50  0001 C CNN
	1    4950 2950
	0    -1   1    0   
$EndComp
Wire Wire Line
	5650 3250 5100 3250
Wire Wire Line
	5650 3150 5100 3150
Wire Wire Line
	5650 3050 5100 3050
Wire Wire Line
	5650 2950 5100 2950
Text Label 5500 3250 2    50   ~ 0
IO_8
Text Label 5500 3150 2    50   ~ 0
IO_7
Text Label 5500 3050 2    50   ~ 0
IO_6
Text Label 5500 2950 2    50   ~ 0
IO_5
$Comp
L ramboard-rescue:UPD444-ram U0
U 1 1 62E59FE1
P 3750 1150
F 0 "U0" H 3950 1250 50  0000 C CNN
F 1 "UPD444" H 3950 1150 50  0000 C CNN
F 2 "" H 3750 1150 50  0001 C CNN
F 3 "" H 3750 1150 50  0001 C CNN
	1    3750 1150
	1    0    0    -1  
$EndComp
Entry Wire Line
	5750 2850 5650 2950
Entry Wire Line
	5750 2950 5650 3050
Entry Wire Line
	5750 3050 5650 3150
Entry Wire Line
	5750 3150 5650 3250
Entry Wire Line
	4900 1500 4800 1600
Entry Wire Line
	4900 1600 4800 1700
Entry Wire Line
	4900 1700 4800 1800
Entry Wire Line
	4900 1400 4800 1500
Wire Bus Line
	4900 1950 5750 1950
Wire Bus Line
	5750 3400 6200 3400
Text Label 5200 1950 0    50   ~ 0
IO[1..8]
$Comp
L power:GNDREF #PWR0105
U 1 1 6300A776
P 3750 2850
F 0 "#PWR0105" H 3750 2600 50  0001 C CNN
F 1 "GNDREF" H 3755 2677 50  0000 C CNN
F 2 "" H 3750 2850 50  0001 C CNN
F 3 "" H 3750 2850 50  0001 C CNN
	1    3750 2850
	1    0    0    -1  
$EndComp
Wire Wire Line
	3400 2450 2950 2450
Text Label 3100 2450 0    50   ~ 0
~CS~0
Wire Wire Line
	3400 1400 2950 1400
Wire Wire Line
	3400 1500 2950 1500
Wire Wire Line
	3400 1800 2950 1800
Wire Wire Line
	3400 1900 2950 1900
Wire Wire Line
	3400 2000 2950 2000
Wire Wire Line
	3400 2100 2950 2100
Wire Wire Line
	3400 2200 2950 2200
Wire Wire Line
	3400 2300 2950 2300
Text Label 3100 1400 0    50   ~ 0
A0
Text Label 3100 1500 0    50   ~ 0
A1
Text Label 3100 1700 0    50   ~ 0
A3
Text Label 3100 1800 0    50   ~ 0
A4
Text Label 3100 1900 0    50   ~ 0
A5
Text Label 3100 2000 0    50   ~ 0
A6
Text Label 3100 2100 0    50   ~ 0
A7
Text Label 3100 2200 0    50   ~ 0
A8
Text Label 3100 2300 0    50   ~ 0
A9
Wire Bus Line
	2850 1150 2500 1150
Text Label 2550 1150 0    50   ~ 0
A[0..10]
Entry Wire Line
	2950 1400 2850 1300
Wire Wire Line
	2950 1700 3400 1700
Wire Wire Line
	2950 1600 3400 1600
Entry Wire Line
	2950 1500 2850 1400
Entry Wire Line
	2950 1700 2850 1600
Entry Wire Line
	2950 1800 2850 1700
Entry Wire Line
	2950 1900 2850 1800
Entry Wire Line
	2950 2000 2850 1900
Entry Wire Line
	2950 2100 2850 2000
Entry Wire Line
	2950 2200 2850 2100
Entry Wire Line
	2950 2300 2850 2200
$Comp
L power:+5V #PWR0106
U 1 1 6323BACF
P 3750 1150
F 0 "#PWR0106" H 3750 1000 50  0001 C CNN
F 1 "+5V" H 3765 1323 50  0000 C CNN
F 2 "" H 3750 1150 50  0001 C CNN
F 3 "" H 3750 1150 50  0001 C CNN
	1    3750 1150
	1    0    0    -1  
$EndComp
$Comp
L 4xxx:4069 U6
U 7 1 6338AEFA
P 4350 15150
F 0 "U6" H 4580 15196 50  0000 L CNN
F 1 "4069" H 4580 15105 50  0000 L CNN
F 2 "" H 4350 15150 50  0001 C CNN
F 3 "http://www.intersil.com/content/dam/Intersil/documents/cd40/cd4069ubms.pdf" H 4350 15150 50  0001 C CNN
	7    4350 15150
	1    0    0    -1  
$EndComp
$Comp
L power:+5V #PWR017
U 1 1 6338F7C9
P 4350 14600
F 0 "#PWR017" H 4350 14450 50  0001 C CNN
F 1 "+5V" H 4365 14773 50  0000 C CNN
F 2 "" H 4350 14600 50  0001 C CNN
F 3 "" H 4350 14600 50  0001 C CNN
	1    4350 14600
	1    0    0    -1  
$EndComp
$Comp
L power:GNDREF #PWR018
U 1 1 633907D7
P 4350 15700
F 0 "#PWR018" H 4350 15450 50  0001 C CNN
F 1 "GNDREF" H 4355 15527 50  0000 C CNN
F 2 "" H 4350 15700 50  0001 C CNN
F 3 "" H 4350 15700 50  0001 C CNN
	1    4350 15700
	1    0    0    -1  
$EndComp
Wire Wire Line
	2000 2450 2500 2450
Text Label 2100 2450 0    50   ~ 0
~CS~_OUT
$Comp
L Device:C C6
U 1 1 633F3A50
P 3900 15150
F 0 "C6" H 4015 15196 50  0000 L CNN
F 1 "0.1uF" H 3900 15050 50  0000 L CNN
F 2 "" H 3938 15000 50  0001 C CNN
F 3 "~" H 3900 15150 50  0001 C CNN
	1    3900 15150
	1    0    0    -1  
$EndComp
$Comp
L Device:C C1
U 1 1 633F4ACC
P 800 13100
F 0 "C1" H 915 13146 50  0000 L CNN
F 1 "0.1uF" H 915 13055 50  0000 L CNN
F 2 "" H 838 12950 50  0001 C CNN
F 3 "~" H 800 13100 50  0001 C CNN
	1    800  13100
	1    0    0    -1  
$EndComp
$Comp
L Device:C C4
U 1 1 633F533A
P 1150 13100
F 0 "C4" H 1265 13146 50  0000 L CNN
F 1 "0.1uF" H 1265 13055 50  0000 L CNN
F 2 "" H 1188 12950 50  0001 C CNN
F 3 "~" H 1150 13100 50  0001 C CNN
	1    1150 13100
	1    0    0    -1  
$EndComp
$Comp
L Device:C C7
U 1 1 633F5D85
P 1500 13100
F 0 "C7" H 1615 13146 50  0000 L CNN
F 1 "0.1uF" H 1615 13055 50  0000 L CNN
F 2 "" H 1538 12950 50  0001 C CNN
F 3 "~" H 1500 13100 50  0001 C CNN
	1    1500 13100
	1    0    0    -1  
$EndComp
$Comp
L Device:C C9
U 1 1 633F66F5
P 1850 13100
F 0 "C9" H 1965 13146 50  0000 L CNN
F 1 "0.1uF" H 1965 13055 50  0000 L CNN
F 2 "" H 1888 12950 50  0001 C CNN
F 3 "~" H 1850 13100 50  0001 C CNN
	1    1850 13100
	1    0    0    -1  
$EndComp
$Comp
L Device:C C11
U 1 1 633F6CB2
P 2200 13100
F 0 "C11" H 2315 13146 50  0000 L CNN
F 1 "0.1uF" H 2315 13055 50  0000 L CNN
F 2 "" H 2238 12950 50  0001 C CNN
F 3 "~" H 2200 13100 50  0001 C CNN
	1    2200 13100
	1    0    0    -1  
$EndComp
Wire Wire Line
	800  13250 800  13400
Wire Wire Line
	800  13400 1150 13400
Wire Wire Line
	2200 13400 2200 13250
Wire Wire Line
	1850 13250 1850 13400
Connection ~ 1850 13400
Wire Wire Line
	1850 13400 2200 13400
Wire Wire Line
	1500 13250 1500 13400
Connection ~ 1500 13400
Wire Wire Line
	1500 13400 1850 13400
Wire Wire Line
	1150 13250 1150 13400
Connection ~ 1150 13400
Wire Wire Line
	1150 13400 1500 13400
Wire Wire Line
	800  12950 800  12800
Wire Wire Line
	800  12800 1150 12800
Wire Wire Line
	2200 12800 2200 12950
Wire Wire Line
	1850 12950 1850 12800
Connection ~ 1850 12800
Wire Wire Line
	1850 12800 2200 12800
Wire Wire Line
	1500 12950 1500 12800
Connection ~ 1500 12800
Wire Wire Line
	1500 12800 1850 12800
Wire Wire Line
	1150 12950 1150 12800
Connection ~ 1150 12800
Wire Wire Line
	1150 12800 1500 12800
$Comp
L power:GNDREF #PWR016
U 1 1 634A5848
P 800 13400
F 0 "#PWR016" H 800 13150 50  0001 C CNN
F 1 "GNDREF" H 805 13227 50  0000 C CNN
F 2 "" H 800 13400 50  0001 C CNN
F 3 "" H 800 13400 50  0001 C CNN
	1    800  13400
	1    0    0    -1  
$EndComp
Connection ~ 800  13400
$Comp
L power:+5V #PWR015
U 1 1 634A5FAD
P 800 12800
F 0 "#PWR015" H 800 12650 50  0001 C CNN
F 1 "+5V" H 815 12973 50  0000 C CNN
F 2 "" H 800 12800 50  0001 C CNN
F 3 "" H 800 12800 50  0001 C CNN
	1    800  12800
	1    0    0    -1  
$EndComp
Connection ~ 800  12800
$Comp
L Device:CP C2
U 1 1 634A77C9
P 800 14050
F 0 "C2" H 918 14096 50  0000 L CNN
F 1 "10uF" H 918 14005 50  0000 L CNN
F 2 "" H 838 13900 50  0001 C CNN
F 3 "~" H 800 14050 50  0001 C CNN
	1    800  14050
	1    0    0    -1  
$EndComp
$Comp
L Device:CP C5
U 1 1 634A7FC6
P 1250 14050
F 0 "C5" H 1368 14096 50  0000 L CNN
F 1 "10uF" H 1368 14005 50  0000 L CNN
F 2 "" H 1288 13900 50  0001 C CNN
F 3 "~" H 1250 14050 50  0001 C CNN
	1    1250 14050
	1    0    0    -1  
$EndComp
$Comp
L Device:CP C8
U 1 1 634A84EB
P 1700 14050
F 0 "C8" H 1818 14096 50  0000 L CNN
F 1 "10uF" H 1818 14005 50  0000 L CNN
F 2 "" H 1738 13900 50  0001 C CNN
F 3 "~" H 1700 14050 50  0001 C CNN
	1    1700 14050
	1    0    0    -1  
$EndComp
$Comp
L Device:CP C10
U 1 1 634A890A
P 2150 14050
F 0 "C10" H 2268 14096 50  0000 L CNN
F 1 "10uF" H 2268 14005 50  0000 L CNN
F 2 "" H 2188 13900 50  0001 C CNN
F 3 "~" H 2150 14050 50  0001 C CNN
	1    2150 14050
	1    0    0    -1  
$EndComp
$Comp
L Device:CP C12
U 1 1 634A8C78
P 2600 14050
F 0 "C12" H 2718 14096 50  0000 L CNN
F 1 "10uF" H 2718 14005 50  0000 L CNN
F 2 "" H 2638 13900 50  0001 C CNN
F 3 "~" H 2600 14050 50  0001 C CNN
	1    2600 14050
	1    0    0    -1  
$EndComp
Wire Wire Line
	800  14200 800  14350
Wire Wire Line
	800  14350 1250 14350
Wire Wire Line
	2600 14350 2600 14200
Wire Wire Line
	1250 14200 1250 14350
Connection ~ 1250 14350
Wire Wire Line
	1250 14350 1700 14350
Wire Wire Line
	1700 14200 1700 14350
Connection ~ 1700 14350
Wire Wire Line
	1700 14350 2150 14350
Wire Wire Line
	2150 14200 2150 14350
Connection ~ 2150 14350
Wire Wire Line
	2150 14350 2600 14350
Wire Wire Line
	800  13900 800  13800
Wire Wire Line
	800  13800 1250 13800
Wire Wire Line
	2600 13800 2600 13900
Wire Wire Line
	2150 13900 2150 13800
Connection ~ 2150 13800
Wire Wire Line
	2150 13800 2600 13800
Wire Wire Line
	1700 13900 1700 13800
Connection ~ 1700 13800
Wire Wire Line
	1700 13800 2150 13800
Wire Wire Line
	1250 13900 1250 13800
Connection ~ 1250 13800
Wire Wire Line
	1250 13800 1700 13800
$Comp
L power:+5V #PWR025
U 1 1 6358653F
P 2600 13800
F 0 "#PWR025" H 2600 13650 50  0001 C CNN
F 1 "+5V" H 2615 13973 50  0000 C CNN
F 2 "" H 2600 13800 50  0001 C CNN
F 3 "" H 2600 13800 50  0001 C CNN
	1    2600 13800
	1    0    0    -1  
$EndComp
Connection ~ 2600 13800
$Comp
L power:GNDREF #PWR026
U 1 1 63586F88
P 2600 14350
F 0 "#PWR026" H 2600 14100 50  0001 C CNN
F 1 "GNDREF" H 2605 14177 50  0000 C CNN
F 2 "" H 2600 14350 50  0001 C CNN
F 3 "" H 2600 14350 50  0001 C CNN
	1    2600 14350
	1    0    0    -1  
$EndComp
Connection ~ 2600 14350
$Comp
L Device:CP C3
U 1 1 63588143
P 3450 15150
F 0 "C3" H 3568 15196 50  0000 L CNN
F 1 "10uF" H 3568 15105 50  0000 L CNN
F 2 "" H 3488 15000 50  0001 C CNN
F 3 "~" H 3450 15150 50  0001 C CNN
	1    3450 15150
	1    0    0    -1  
$EndComp
Wire Wire Line
	4350 15650 3900 15650
Wire Wire Line
	3450 15300 3450 15650
Wire Wire Line
	3900 15300 3900 15650
Connection ~ 3900 15650
Wire Wire Line
	3900 15650 3450 15650
Wire Wire Line
	4350 15650 4350 15700
Connection ~ 4350 15650
Wire Wire Line
	4350 14600 4350 14650
Wire Wire Line
	4350 14650 3900 14650
Connection ~ 4350 14650
Wire Wire Line
	3450 14650 3450 15000
Wire Wire Line
	3900 14650 3900 15000
Connection ~ 3900 14650
Wire Wire Line
	3900 14650 3450 14650
$Comp
L Device:R_Small_US R9
U 1 1 636E6E6F
P 5100 5900
F 0 "R9" H 5168 5946 50  0000 L CNN
F 1 "47k" H 5168 5855 50  0000 L CNN
F 2 "" H 5100 5900 50  0001 C CNN
F 3 "~" H 5100 5900 50  0001 C CNN
	1    5100 5900
	1    0    0    -1  
$EndComp
$Comp
L power:+5V #PWR019
U 1 1 636F7531
P 5100 5800
F 0 "#PWR019" H 5100 5650 50  0001 C CNN
F 1 "+5V" H 5115 5973 50  0000 C CNN
F 2 "" H 5100 5800 50  0001 C CNN
F 3 "" H 5100 5800 50  0001 C CNN
	1    5100 5800
	1    0    0    -1  
$EndComp
$Comp
L Device:R_Small_US R10
U 1 1 63716FB1
P 5100 6450
F 0 "R10" H 5168 6496 50  0000 L CNN
F 1 "47k" H 5168 6405 50  0000 L CNN
F 2 "" H 5100 6450 50  0001 C CNN
F 3 "~" H 5100 6450 50  0001 C CNN
	1    5100 6450
	1    0    0    -1  
$EndComp
$Comp
L power:+5V #PWR020
U 1 1 63716FB7
P 5100 6350
F 0 "#PWR020" H 5100 6200 50  0001 C CNN
F 1 "+5V" H 5115 6523 50  0000 C CNN
F 2 "" H 5100 6350 50  0001 C CNN
F 3 "" H 5100 6350 50  0001 C CNN
	1    5100 6350
	1    0    0    -1  
$EndComp
$Comp
L Device:R_Small_US R11
U 1 1 63731674
P 5100 7000
F 0 "R11" H 5168 7046 50  0000 L CNN
F 1 "47k" H 5168 6955 50  0000 L CNN
F 2 "" H 5100 7000 50  0001 C CNN
F 3 "~" H 5100 7000 50  0001 C CNN
	1    5100 7000
	1    0    0    -1  
$EndComp
$Comp
L power:+5V #PWR021
U 1 1 6373167A
P 5100 6900
F 0 "#PWR021" H 5100 6750 50  0001 C CNN
F 1 "+5V" H 5115 7073 50  0000 C CNN
F 2 "" H 5100 6900 50  0001 C CNN
F 3 "" H 5100 6900 50  0001 C CNN
	1    5100 6900
	1    0    0    -1  
$EndComp
$Comp
L Device:R_Small_US R12
U 1 1 6374BDED
P 5100 7550
F 0 "R12" H 5168 7596 50  0000 L CNN
F 1 "47k" H 5168 7505 50  0000 L CNN
F 2 "" H 5100 7550 50  0001 C CNN
F 3 "~" H 5100 7550 50  0001 C CNN
	1    5100 7550
	1    0    0    -1  
$EndComp
$Comp
L power:+5V #PWR022
U 1 1 6374BDF3
P 5100 7450
F 0 "#PWR022" H 5100 7300 50  0001 C CNN
F 1 "+5V" H 5115 7623 50  0000 C CNN
F 2 "" H 5100 7450 50  0001 C CNN
F 3 "" H 5100 7450 50  0001 C CNN
	1    5100 7450
	1    0    0    -1  
$EndComp
$Comp
L Device:R_Small_US R13
U 1 1 63766812
P 5100 8150
F 0 "R13" H 5168 8196 50  0000 L CNN
F 1 "47k" H 5168 8105 50  0000 L CNN
F 2 "" H 5100 8150 50  0001 C CNN
F 3 "~" H 5100 8150 50  0001 C CNN
	1    5100 8150
	1    0    0    -1  
$EndComp
$Comp
L power:+5V #PWR023
U 1 1 63766818
P 5100 8050
F 0 "#PWR023" H 5100 7900 50  0001 C CNN
F 1 "+5V" H 5115 8223 50  0000 C CNN
F 2 "" H 5100 8050 50  0001 C CNN
F 3 "" H 5100 8050 50  0001 C CNN
	1    5100 8050
	1    0    0    -1  
$EndComp
Text Notes 7450 15750 0    50   ~ 10
Ram Expansion Board for Icom IC-M700
Text Notes 6800 2200 0    50   ~ 0
Note: SRAM chips are in parallel except for ~CS~ line
Text Notes 1050 8750 0    50   ~ 0
Address bit A10 is not toggled by\nthe radio, so, we toggle it with\nbit 0 from the encoder knob. 
Text Notes 5550 6350 0    50   ~ 0
Note: Since we are toggling\nA10 with every other step,\nevery two steps selects\na different SRAM chip.
Text Notes 650  12450 0    50   ~ 0
Decoupling caps to go next to each SRAM chip
$Comp
L power:GNDREF #PWR027
U 1 1 6393D03B
P 7600 4200
F 0 "#PWR027" H 7600 3950 50  0001 C CNN
F 1 "GNDREF" V 7605 4072 50  0000 R CNN
F 2 "" H 7600 4200 50  0001 C CNN
F 3 "" H 7600 4200 50  0001 C CNN
	1    7600 4200
	0    1    1    0   
$EndComp
Wire Wire Line
	7600 4200 7650 4200
Text Notes 5550 6800 0    50   ~ 0
Note: Pullup resistors place\nSRAM chips in lowest-possible\npower mode when running from\nbattery.
Text Notes 4650 2850 0    50   ~ 0
These resistors may not\nbe needed since the radio\nhas them.
Text Notes 950  5800 0    50   ~ 0
N/C
Text Notes 700  1200 0    50   ~ 0
Address bit assignments (numbers related to SRAM bits):\nA0,1,3: CPU\nA2: TCO Line and CPU, PTT toggled \nA5,4: ABC Knob and 2182 Alert\nA9,8,7,6: 1-16 Knob
Text Notes 650  2200 0    50   ~ 0
Note: ~CS~_OUT strobes at about 4 KHz. 
Wire Wire Line
	2500 2450 2500 2800
Wire Wire Line
	1400 2800 1400 3400
Wire Wire Line
	1400 3400 1700 3400
Text Label 2400 3400 0    50   ~ 0
CS
Wire Wire Line
	4750 6000 5100 6000
Wire Wire Line
	4750 6550 5100 6550
Wire Wire Line
	4750 7100 5100 7100
Wire Wire Line
	4750 7650 5100 7650
Wire Wire Line
	4750 8250 5100 8250
$Comp
L 4xxx:4028 U7
U 1 1 62D51538
P 1700 6150
F 0 "U7" H 1700 7031 50  0000 C CNN
F 1 "4028" H 1700 6940 50  0000 C CNN
F 2 "" H 1700 6150 50  0001 C CNN
F 3 "http://www.intersil.com/content/dam/Intersil/documents/cd40/cd4028bms.pdf" H 1700 6150 50  0001 C CNN
	1    1700 6150
	1    0    0    -1  
$EndComp
Wire Wire Line
	950  5950 1200 5950
Wire Wire Line
	950  6050 1200 6050
Wire Wire Line
	950  6150 1200 6150
Wire Wire Line
	950  6250 1200 6250
$Comp
L power:+5V #PWR024
U 1 1 62D9F1B8
P 1050 6350
F 0 "#PWR024" H 1050 6200 50  0001 C CNN
F 1 "+5V" V 1065 6478 50  0000 L CNN
F 2 "" H 1050 6350 50  0001 C CNN
F 3 "" H 1050 6350 50  0001 C CNN
	1    1050 6350
	0    1    1    0   
$EndComp
Wire Wire Line
	1050 6350 950  6350
Text Label 950  6250 0    50   ~ 0
EnB_0
Text Label 950  6150 0    50   ~ 0
EnB_1
Text Label 950  6050 0    50   ~ 0
EnB_2
Text Label 950  5950 0    50   ~ 0
EnB_3
$Comp
L power:+5V #PWR028
U 1 1 62DF3021
P 1700 5450
F 0 "#PWR028" H 1700 5300 50  0001 C CNN
F 1 "+5V" V 1715 5578 50  0000 L CNN
F 2 "" H 1700 5450 50  0001 C CNN
F 3 "" H 1700 5450 50  0001 C CNN
	1    1700 5450
	0    1    1    0   
$EndComp
$Comp
L 4xxx:4011 U11
U 1 1 62DF4F0C
P 4450 6000
F 0 "U11" H 4450 6325 50  0000 C CNN
F 1 "4011" H 4450 6234 50  0000 C CNN
F 2 "" H 4450 6000 50  0001 C CNN
F 3 "http://www.intersil.com/content/dam/Intersil/documents/cd40/cd4011bms-12bms-23bms.pdf" H 4450 6000 50  0001 C CNN
	1    4450 6000
	1    0    0    -1  
$EndComp
$Comp
L 4xxx:4011 U11
U 2 1 62DF6521
P 4450 6550
F 0 "U11" H 4450 6875 50  0000 C CNN
F 1 "4011" H 4450 6784 50  0000 C CNN
F 2 "" H 4450 6550 50  0001 C CNN
F 3 "http://www.intersil.com/content/dam/Intersil/documents/cd40/cd4011bms-12bms-23bms.pdf" H 4450 6550 50  0001 C CNN
	2    4450 6550
	1    0    0    -1  
$EndComp
$Comp
L 4xxx:4011 U11
U 3 1 62DF91A7
P 4450 7100
F 0 "U11" H 4450 7425 50  0000 C CNN
F 1 "4011" H 4450 7334 50  0000 C CNN
F 2 "" H 4450 7100 50  0001 C CNN
F 3 "http://www.intersil.com/content/dam/Intersil/documents/cd40/cd4011bms-12bms-23bms.pdf" H 4450 7100 50  0001 C CNN
	3    4450 7100
	1    0    0    -1  
$EndComp
$Comp
L 4xxx:4011 U11
U 4 1 62DF96F7
P 4450 7650
F 0 "U11" H 4450 7975 50  0000 C CNN
F 1 "4011" H 4450 7884 50  0000 C CNN
F 2 "" H 4450 7650 50  0001 C CNN
F 3 "http://www.intersil.com/content/dam/Intersil/documents/cd40/cd4011bms-12bms-23bms.pdf" H 4450 7650 50  0001 C CNN
	4    4450 7650
	1    0    0    -1  
$EndComp
$Comp
L 4xxx:4011 U11
U 5 1 62DFBA4E
P 5100 15150
F 0 "U11" H 5330 15196 50  0000 L CNN
F 1 "4011" H 5330 15105 50  0000 L CNN
F 2 "" H 5100 15150 50  0001 C CNN
F 3 "http://www.intersil.com/content/dam/Intersil/documents/cd40/cd4011bms-12bms-23bms.pdf" H 5100 15150 50  0001 C CNN
	5    5100 15150
	1    0    0    -1  
$EndComp
$Comp
L 4xxx:4011 U12
U 1 1 62E1A6C1
P 4450 8250
F 0 "U12" H 4450 8575 50  0000 C CNN
F 1 "4011" H 4450 8484 50  0000 C CNN
F 2 "" H 4450 8250 50  0001 C CNN
F 3 "http://www.intersil.com/content/dam/Intersil/documents/cd40/cd4011bms-12bms-23bms.pdf" H 4450 8250 50  0001 C CNN
	1    4450 8250
	1    0    0    -1  
$EndComp
$Comp
L 4xxx:4011 U12
U 5 1 62E1C960
P 5900 15150
F 0 "U12" H 6130 15196 50  0000 L CNN
F 1 "4011" H 6130 15105 50  0000 L CNN
F 2 "" H 5900 15150 50  0001 C CNN
F 3 "http://www.intersil.com/content/dam/Intersil/documents/cd40/cd4011bms-12bms-23bms.pdf" H 5900 15150 50  0001 C CNN
	5    5900 15150
	1    0    0    -1  
$EndComp
Wire Wire Line
	5100 15650 4350 15650
Wire Wire Line
	5100 15650 5900 15650
Connection ~ 5100 15650
Wire Wire Line
	5900 14650 5100 14650
Wire Wire Line
	5100 14650 4350 14650
Connection ~ 5100 14650
$Comp
L Device:C C18
U 1 1 62E90300
P 3000 15150
F 0 "C18" H 3115 15196 50  0000 L CNN
F 1 "0.1uF" H 3000 15050 50  0000 L CNN
F 2 "" H 3038 15000 50  0001 C CNN
F 3 "~" H 3000 15150 50  0001 C CNN
	1    3000 15150
	1    0    0    -1  
$EndComp
$Comp
L Device:CP C17
U 1 1 62E90306
P 2550 15150
F 0 "C17" H 2668 15196 50  0000 L CNN
F 1 "10uF" H 2668 15105 50  0000 L CNN
F 2 "" H 2588 15000 50  0001 C CNN
F 3 "~" H 2550 15150 50  0001 C CNN
	1    2550 15150
	1    0    0    -1  
$EndComp
Wire Wire Line
	3450 15650 3000 15650
Wire Wire Line
	2550 15300 2550 15650
Wire Wire Line
	3000 15300 3000 15650
Connection ~ 3000 15650
Wire Wire Line
	3450 14650 3000 14650
Wire Wire Line
	2550 14650 2550 15000
Wire Wire Line
	3000 14650 3000 15000
Connection ~ 3000 14650
$Comp
L Device:C C16
U 1 1 62EA430C
P 2150 15150
F 0 "C16" H 2265 15196 50  0000 L CNN
F 1 "0.1uF" H 2150 15050 50  0000 L CNN
F 2 "" H 2188 15000 50  0001 C CNN
F 3 "~" H 2150 15150 50  0001 C CNN
	1    2150 15150
	1    0    0    -1  
$EndComp
$Comp
L Device:CP C15
U 1 1 62EA4312
P 1700 15150
F 0 "C15" H 1818 15196 50  0000 L CNN
F 1 "10uF" H 1818 15105 50  0000 L CNN
F 2 "" H 1738 15000 50  0001 C CNN
F 3 "~" H 1700 15150 50  0001 C CNN
	1    1700 15150
	1    0    0    -1  
$EndComp
Wire Wire Line
	1700 15300 1700 15650
Wire Wire Line
	2150 15300 2150 15650
Connection ~ 2150 15650
Wire Wire Line
	2150 15650 1700 15650
Wire Wire Line
	1700 14650 1700 15000
Wire Wire Line
	2150 14650 2150 15000
Connection ~ 2150 14650
Wire Wire Line
	2150 14650 1700 14650
Wire Wire Line
	2150 15650 2550 15650
Wire Wire Line
	2150 14650 2550 14650
$Comp
L Device:C C14
U 1 1 62EB9A91
P 1250 15150
F 0 "C14" H 1365 15196 50  0000 L CNN
F 1 "0.1uF" H 1250 15050 50  0000 L CNN
F 2 "" H 1288 15000 50  0001 C CNN
F 3 "~" H 1250 15150 50  0001 C CNN
	1    1250 15150
	1    0    0    -1  
$EndComp
$Comp
L Device:CP C13
U 1 1 62EB9A97
P 800 15150
F 0 "C13" H 918 15196 50  0000 L CNN
F 1 "10uF" H 918 15105 50  0000 L CNN
F 2 "" H 838 15000 50  0001 C CNN
F 3 "~" H 800 15150 50  0001 C CNN
	1    800  15150
	1    0    0    -1  
$EndComp
Wire Wire Line
	1700 15650 1250 15650
Wire Wire Line
	800  15300 800  15650
Wire Wire Line
	1250 15300 1250 15650
Connection ~ 1250 15650
Wire Wire Line
	1250 15650 800  15650
Wire Wire Line
	1700 14650 1250 14650
Wire Wire Line
	800  14650 800  15000
Wire Wire Line
	1250 14650 1250 15000
Connection ~ 1250 14650
Wire Wire Line
	1250 14650 800  14650
Connection ~ 1700 14650
Connection ~ 1700 15650
Connection ~ 2550 14650
Wire Wire Line
	2550 14650 3000 14650
Connection ~ 2550 15650
Wire Wire Line
	2550 15650 3000 15650
Connection ~ 3450 14650
Connection ~ 3450 15650
$Comp
L 4xxx:4071 U9
U 1 1 62F90655
P 3400 5900
F 0 "U9" H 3400 6225 50  0000 C CNN
F 1 "4071" H 3400 6134 50  0000 C CNN
F 2 "" H 3400 5900 50  0001 C CNN
F 3 "http://www.intersil.com/content/dam/Intersil/documents/cd40/cd4071bms-72bms-75bms.pdf" H 3400 5900 50  0001 C CNN
	1    3400 5900
	1    0    0    -1  
$EndComp
$Comp
L 4xxx:4071 U9
U 2 1 62F92623
P 3400 6450
F 0 "U9" H 3400 6775 50  0000 C CNN
F 1 "4071" H 3400 6684 50  0000 C CNN
F 2 "" H 3400 6450 50  0001 C CNN
F 3 "http://www.intersil.com/content/dam/Intersil/documents/cd40/cd4071bms-72bms-75bms.pdf" H 3400 6450 50  0001 C CNN
	2    3400 6450
	1    0    0    -1  
$EndComp
$Comp
L 4xxx:4071 U9
U 3 1 62F941DC
P 3400 7000
F 0 "U9" H 3400 7325 50  0000 C CNN
F 1 "4071" H 3400 7234 50  0000 C CNN
F 2 "" H 3400 7000 50  0001 C CNN
F 3 "http://www.intersil.com/content/dam/Intersil/documents/cd40/cd4071bms-72bms-75bms.pdf" H 3400 7000 50  0001 C CNN
	3    3400 7000
	1    0    0    -1  
$EndComp
$Comp
L 4xxx:4071 U9
U 4 1 62F9518A
P 3400 7550
F 0 "U9" H 3400 7875 50  0000 C CNN
F 1 "4071" H 3400 7784 50  0000 C CNN
F 2 "" H 3400 7550 50  0001 C CNN
F 3 "http://www.intersil.com/content/dam/Intersil/documents/cd40/cd4071bms-72bms-75bms.pdf" H 3400 7550 50  0001 C CNN
	4    3400 7550
	1    0    0    -1  
$EndComp
$Comp
L 4xxx:4071 U9
U 5 1 62F96232
P 5100 13650
F 0 "U9" H 5330 13696 50  0000 L CNN
F 1 "4071" H 5330 13605 50  0000 L CNN
F 2 "" H 5100 13650 50  0001 C CNN
F 3 "http://www.intersil.com/content/dam/Intersil/documents/cd40/cd4071bms-72bms-75bms.pdf" H 5100 13650 50  0001 C CNN
	5    5100 13650
	1    0    0    -1  
$EndComp
$Comp
L 4xxx:4071 U10
U 1 1 62FB9410
P 3400 8150
F 0 "U10" H 3400 8475 50  0000 C CNN
F 1 "4071" H 3400 8384 50  0000 C CNN
F 2 "" H 3400 8150 50  0001 C CNN
F 3 "http://www.intersil.com/content/dam/Intersil/documents/cd40/cd4071bms-72bms-75bms.pdf" H 3400 8150 50  0001 C CNN
	1    3400 8150
	1    0    0    -1  
$EndComp
$Comp
L 4xxx:4071 U10
U 5 1 62FD6778
P 5850 13650
F 0 "U10" H 6080 13696 50  0000 L CNN
F 1 "4071" H 6080 13605 50  0000 L CNN
F 2 "" H 5850 13650 50  0001 C CNN
F 3 "http://www.intersil.com/content/dam/Intersil/documents/cd40/cd4071bms-72bms-75bms.pdf" H 5850 13650 50  0001 C CNN
	5    5850 13650
	1    0    0    -1  
$EndComp
Wire Wire Line
	3700 5900 4150 5900
Wire Wire Line
	3700 6450 4150 6450
Wire Wire Line
	3700 7000 4150 7000
Wire Wire Line
	3700 7550 4150 7550
Wire Wire Line
	3700 8150 4150 8150
Wire Wire Line
	2850 5850 2850 6000
Wire Wire Line
	2850 6000 3100 6000
Wire Wire Line
	2800 5950 2800 6350
Wire Wire Line
	2800 6350 3100 6350
Wire Wire Line
	2750 6050 2750 6550
Wire Wire Line
	2750 6550 3100 6550
Wire Wire Line
	2700 6150 2700 6900
Wire Wire Line
	2700 6900 3100 6900
Wire Wire Line
	2650 6250 2650 7100
Wire Wire Line
	2650 7100 3100 7100
Wire Wire Line
	2600 6350 2600 7450
Wire Wire Line
	2600 7450 3100 7450
Wire Wire Line
	2550 6450 2550 7650
Wire Wire Line
	2550 7650 3100 7650
Wire Wire Line
	2200 6550 2500 6550
Wire Wire Line
	2500 6550 2500 8050
Wire Wire Line
	2500 8050 3100 8050
Wire Wire Line
	2200 6650 2450 6650
Wire Wire Line
	2450 6650 2450 8250
Wire Wire Line
	2450 8250 3100 8250
Wire Wire Line
	2200 5850 2850 5850
Wire Wire Line
	2200 5950 2800 5950
Wire Wire Line
	2200 6050 2750 6050
Wire Wire Line
	2200 6150 2700 6150
Wire Wire Line
	2200 6250 2650 6250
Wire Wire Line
	2200 6350 2600 6350
Wire Wire Line
	2200 6450 2550 6450
Wire Wire Line
	3100 5800 2900 5800
Wire Wire Line
	2900 5800 2900 5750
Wire Wire Line
	2200 5750 2900 5750
Wire Wire Line
	4150 6100 4000 6100
Wire Wire Line
	4000 5000 3850 5000
Text Label 3850 5000 0    50   ~ 0
CS
Wire Wire Line
	4000 6100 4000 6650
Wire Wire Line
	4000 8350 4150 8350
Connection ~ 4000 6100
Wire Wire Line
	4150 7750 4000 7750
Connection ~ 4000 7750
Wire Wire Line
	4000 7750 4000 8350
Wire Wire Line
	4150 7200 4000 7200
Connection ~ 4000 7200
Wire Wire Line
	4000 7200 4000 7750
Wire Wire Line
	4150 6650 4000 6650
Connection ~ 4000 6650
Wire Wire Line
	4000 6650 4000 7200
$Comp
L power:GNDREF #PWR029
U 1 1 63385F25
P 1700 6950
F 0 "#PWR029" H 1700 6700 50  0001 C CNN
F 1 "GNDREF" H 1750 6800 50  0000 C CNN
F 2 "" H 1700 6950 50  0001 C CNN
F 3 "" H 1700 6950 50  0001 C CNN
	1    1700 6950
	1    0    0    -1  
$EndComp
$Comp
L Device:C C22
U 1 1 633CD6CC
P 4500 13650
F 0 "C22" H 4615 13696 50  0000 L CNN
F 1 "0.1uF" H 4500 13550 50  0000 L CNN
F 2 "" H 4538 13500 50  0001 C CNN
F 3 "~" H 4500 13650 50  0001 C CNN
	1    4500 13650
	1    0    0    -1  
$EndComp
$Comp
L Device:CP C21
U 1 1 633CD6D2
P 4050 13650
F 0 "C21" H 4168 13696 50  0000 L CNN
F 1 "10uF" H 4168 13605 50  0000 L CNN
F 2 "" H 4088 13500 50  0001 C CNN
F 3 "~" H 4050 13650 50  0001 C CNN
	1    4050 13650
	1    0    0    -1  
$EndComp
Wire Wire Line
	4050 13800 4050 14150
Wire Wire Line
	4500 13800 4500 14150
Wire Wire Line
	4050 13150 4050 13500
Wire Wire Line
	4050 14150 3600 14150
Wire Wire Line
	4050 13150 3600 13150
Wire Wire Line
	4500 14150 5100 14150
Wire Wire Line
	5100 14150 5850 14150
Connection ~ 5100 14150
Wire Wire Line
	5850 13150 5100 13150
Wire Wire Line
	4500 13150 5100 13150
Connection ~ 5100 13150
$Comp
L Device:C C20
U 1 1 6347756A
P 3600 13650
F 0 "C20" H 3715 13696 50  0000 L CNN
F 1 "0.1uF" H 3600 13550 50  0000 L CNN
F 2 "" H 3638 13500 50  0001 C CNN
F 3 "~" H 3600 13650 50  0001 C CNN
	1    3600 13650
	1    0    0    -1  
$EndComp
$Comp
L Device:CP C19
U 1 1 63477570
P 3150 13650
F 0 "C19" H 3268 13696 50  0000 L CNN
F 1 "10uF" H 3268 13605 50  0000 L CNN
F 2 "" H 3188 13500 50  0001 C CNN
F 3 "~" H 3150 13650 50  0001 C CNN
	1    3150 13650
	1    0    0    -1  
$EndComp
Wire Wire Line
	3150 13800 3150 14150
Wire Wire Line
	3600 13800 3600 14150
Connection ~ 3600 14150
Wire Wire Line
	3600 14150 3150 14150
Wire Wire Line
	3150 13150 3150 13500
Wire Wire Line
	3600 13150 3600 13500
Connection ~ 3600 13150
Wire Wire Line
	3600 13150 3150 13150
Wire Wire Line
	4050 14150 4500 14150
Connection ~ 4050 14150
Connection ~ 4500 14150
Wire Wire Line
	4050 13150 4500 13150
Connection ~ 4050 13150
Connection ~ 4500 13150
Wire Wire Line
	4500 13150 4500 13500
Text Notes 2700 2550 0    50   ~ 0
Use internal pull-up
Wire Wire Line
	2500 2800 1400 2800
Text Notes 3200 12800 0    50   ~ 0
SRAM power comes from battery-backup\nLogic Gate power comes from switch 5V
$Comp
L power:GNDREF #PWR?
U 1 1 6359C078
P 5850 14150
F 0 "#PWR?" H 5850 13900 50  0001 C CNN
F 1 "GNDREF" H 5855 13977 50  0000 C CNN
F 2 "" H 5850 14150 50  0001 C CNN
F 3 "" H 5850 14150 50  0001 C CNN
	1    5850 14150
	1    0    0    -1  
$EndComp
Connection ~ 5850 14150
$Comp
L power:+5V #PWR?
U 1 1 6359CA74
P 5850 13150
F 0 "#PWR?" H 5850 13000 50  0001 C CNN
F 1 "+5V" H 5865 13323 50  0000 C CNN
F 2 "" H 5850 13150 50  0001 C CNN
F 3 "" H 5850 13150 50  0001 C CNN
	1    5850 13150
	1    0    0    -1  
$EndComp
Connection ~ 5850 13150
Wire Wire Line
	7300 3950 7050 3950
Wire Wire Line
	7300 5700 7050 5700
Wire Wire Line
	7300 7450 7050 7450
Wire Wire Line
	7300 9200 7050 9200
Wire Wire Line
	7300 10950 7050 10950
Text Label 7100 3950 0    50   ~ 0
~OE
Text Label 7100 5700 0    50   ~ 0
~OE
Text Label 7100 7450 0    50   ~ 0
~OE
Text Label 7100 9200 0    50   ~ 0
~OE
Text Label 7100 10950 0    50   ~ 0
~OE
Text Label 7100 11550 0    50   ~ 0
~OE
Wire Wire Line
	7050 11550 7350 11550
Wire Wire Line
	7350 11550 7350 11650
$Comp
L power:GNDREF #PWR?
U 1 1 63797FAC
P 7350 11650
F 0 "#PWR?" H 7350 11400 50  0001 C CNN
F 1 "GNDREF" V 7355 11522 50  0000 R CNN
F 2 "" H 7350 11650 50  0001 C CNN
F 3 "" H 7350 11650 50  0001 C CNN
	1    7350 11650
	1    0    0    -1  
$EndComp
Text Notes 2850 3500 0    50   ~ 0
CS goes to NAND group
Text Notes 10250 15750 0    50   ~ 10
Elliott H. Liggett, W6EL
Text Notes 8150 15900 0    50   ~ 10
7/1/2022
Wire Wire Line
	1800 11000 1800 11450
$Comp
L 4xxx:4071 U?
U 1 1 638AE4AA
P 3400 8950
F 0 "U?" H 3400 9275 50  0000 C CNN
F 1 "4071" H 3400 9184 50  0000 C CNN
F 2 "" H 3400 8950 50  0001 C CNN
F 3 "http://www.intersil.com/content/dam/Intersil/documents/cd40/cd4071bms-72bms-75bms.pdf" H 3400 8950 50  0001 C CNN
	1    3400 8950
	1    0    0    -1  
$EndComp
Wire Wire Line
	3100 8850 3000 8850
Wire Wire Line
	3000 8850 3000 8950
Wire Wire Line
	3000 9050 3100 9050
Wire Wire Line
	3000 8950 1050 8950
Connection ~ 3000 8950
Wire Wire Line
	3000 8950 3000 9050
Text Label 1200 8950 0    50   ~ 0
EnB_0
Text Label 4800 8950 0    50   ~ 0
A10
Wire Wire Line
	3700 8950 6800 8950
Text Notes 1100 10550 0    50   ~ 0
Termination is required on the encoder\nbecause current through the resistor\ncauses the voltage to change. \nThe encoder is not grounded. 
Text Notes 3250 9250 0    50   ~ 0
(Buffer)
Wire Wire Line
	2300 3400 4000 3400
Wire Wire Line
	4000 3400 4000 5000
Connection ~ 4000 5000
Wire Wire Line
	4000 5000 4000 6100
Wire Wire Line
	6700 5300 6300 5300
Text Label 6600 5300 2    50   ~ 0
~OE~
$Comp
L power:GNDREF #PWR?
U 1 1 63A1464A
P 6300 5300
F 0 "#PWR?" H 6300 5050 50  0001 C CNN
F 1 "GNDREF" V 6305 5172 50  0000 R CNN
F 2 "" H 6300 5300 50  0001 C CNN
F 3 "" H 6300 5300 50  0001 C CNN
	1    6300 5300
	-1   0    0    -1  
$EndComp
Text Notes 700  1900 0    50   ~ 0
Note: Switching the sram-side\nof A2 to ground will disable\nsplit tx-rx behavior and simply\noperate on the rx frequency only. \nUnused NAND and INV gates used\non SRAM board can be used\nas switches for this signal.
$Comp
L 4xxx:4011 U?
U 2 1 63A1733A
P 1050 3900
F 0 "U?" H 1050 4225 50  0000 C CNN
F 1 "4011" H 1050 4134 50  0000 C CNN
F 2 "" H 1050 3900 50  0001 C CNN
F 3 "http://www.intersil.com/content/dam/Intersil/documents/cd40/cd4011bms-12bms-23bms.pdf" H 1050 3900 50  0001 C CNN
	2    1050 3900
	1    0    0    -1  
$EndComp
Wire Wire Line
	1350 3900 1700 3900
Text Label 2700 3900 0    50   ~ 0
A2
Wire Wire Line
	750  4000 650  4000
Wire Wire Line
	750  3450 750  3800
Text Label 750  3650 1    50   ~ 0
A2_Rig
Text Notes 3100 3900 0    50   ~ 0
To SRAM
Text Label 3100 1600 0    50   ~ 0
A2_Rig
Text Notes 3300 4050 2    50   ~ 0
(High on TX by default)
Wire Notes Line
	3950 5450 3950 12100
Wire Notes Line
	3950 12100 500  12100
Wire Notes Line
	500  12100 500  5450
Wire Notes Line
	500  5450 3950 5450
Text Notes 2400 5400 0    50   ~ 0
Encoder Board
Text Notes 4450 5400 0    50   ~ 0
SRAM Expansion Board
$Comp
L 4xxx:4011 U?
U 2 1 62CE1970
P 2000 3900
F 0 "U?" H 2250 4150 50  0000 C CNN
F 1 "4011" H 2000 4134 50  0000 C CNN
F 2 "" H 2000 3900 50  0001 C CNN
F 3 "http://www.intersil.com/content/dam/Intersil/documents/cd40/cd4011bms-12bms-23bms.pdf" H 2000 3900 50  0001 C CNN
	2    2000 3900
	1    0    0    -1  
$EndComp
Wire Wire Line
	1700 3800 1700 3900
Connection ~ 1700 3900
Wire Wire Line
	1700 3900 1700 4000
$Comp
L 4xxx:4011 U?
U 2 1 62D0A1EC
P 2000 3400
F 0 "U?" H 2000 3725 50  0000 C CNN
F 1 "4011" H 2000 3634 50  0000 C CNN
F 2 "" H 2000 3400 50  0001 C CNN
F 3 "http://www.intersil.com/content/dam/Intersil/documents/cd40/cd4011bms-12bms-23bms.pdf" H 2000 3400 50  0001 C CNN
	2    2000 3400
	1    0    0    -1  
$EndComp
Wire Wire Line
	1700 3300 1700 3400
Connection ~ 1700 3400
Wire Wire Line
	1700 3400 1700 3500
$Comp
L Switch:SW_SPST SW?
U 1 1 62D331C2
P 1450 4650
F 0 "SW?" H 1450 4885 50  0000 C CNN
F 1 "SW_SPST" H 1450 4794 50  0000 C CNN
F 2 "" H 1450 4650 50  0001 C CNN
F 3 "~" H 1450 4650 50  0001 C CNN
	1    1450 4650
	1    0    0    -1  
$EndComp
$Comp
L power:GNDREF #PWR?
U 1 1 62D340C0
P 1750 4700
F 0 "#PWR?" H 1750 4450 50  0001 C CNN
F 1 "GNDREF" H 1800 4550 50  0000 C CNN
F 2 "" H 1750 4700 50  0001 C CNN
F 3 "" H 1750 4700 50  0001 C CNN
	1    1750 4700
	1    0    0    -1  
$EndComp
Wire Wire Line
	1750 4700 1750 4650
Wire Wire Line
	1750 4650 1650 4650
Wire Wire Line
	650  4650 900  4650
Wire Wire Line
	650  4000 650  4650
$Comp
L Device:R_Small_US R?
U 1 1 62D8249F
P 900 4550
F 0 "R?" H 968 4596 50  0000 L CNN
F 1 "47k" H 968 4505 50  0000 L CNN
F 2 "" H 900 4550 50  0001 C CNN
F 3 "~" H 900 4550 50  0001 C CNN
	1    900  4550
	1    0    0    -1  
$EndComp
Connection ~ 900  4650
Wire Wire Line
	900  4650 1250 4650
$Comp
L power:+5V #PWR?
U 1 1 62D83ED3
P 900 4450
F 0 "#PWR?" H 900 4300 50  0001 C CNN
F 1 "+5V" H 915 4623 50  0000 C CNN
F 2 "" H 900 4450 50  0001 C CNN
F 3 "" H 900 4450 50  0001 C CNN
	1    900  4450
	1    0    0    -1  
$EndComp
Text Notes 600  4900 0    50   ~ 0
Repurpose speaker\nswitch for "split" en/dis
Text Notes 5550 3400 2    50   ~ 0
DNP, seems fine without
Wire Wire Line
	2300 3900 3050 3900
Wire Bus Line
	4900 1350 4900 1950
Wire Bus Line
	5750 1950 5750 3400
Wire Bus Line
	2850 1150 2850 2200
Wire Bus Line
	8550 2600 8550 10800
Wire Bus Line
	6900 2600 6900 10900
$EndSCHEMATC
